module connection

go 1.13

require (
	github.com/alecthomas/template v0.0.0-20190718012654-fb15b899a751
	github.com/cpuguy83/go-md2man/v2 v2.0.0 // indirect
	github.com/go-sql-driver/mysql v1.5.0
	github.com/gorilla/mux v1.8.0
	github.com/lib/pq v1.8.0
	github.com/russross/blackfriday/v2 v2.1.0 // indirect
	github.com/swaggo/http-swagger v1.0.0
	github.com/swaggo/swag v1.7.0
	golang.org/x/net v0.0.0-20201209123823-ac852fbbde11 // indirect
	golang.org/x/tools v0.0.0-20201208233053-a543418bbed2 // indirect
	gopkg.in/yaml.v2 v2.4.0
)
